{
  "project_info": {
    "project_number": "922874618583",
    "firebase_url": "https://scienceconf-806f1.firebaseio.com",
    "project_id": "scienceconf-806f1",
    "storage_bucket": "scienceconf-806f1.appspot.com"
  },
  "client": [
    {
      "client_info": {
        "mobilesdk_app_id": "1:922874618583:android:e114c3f099fa33cbb44692",
        "android_client_info": {
          "package_name": "com.rockderick.scienceconf"
        }
      },
      "oauth_client": [
        {
          "client_id": "922874618583-gf4t5t40uif6sn16cqas1umre0dp8vr3.apps.googleusercontent.com",
          "client_type": 1,
          "android_info": {
            "package_name": "com.rockderick.scienceconf",
            "certificate_hash": "93e6c23780a9eb6bb530171f71a733a3019cf175"
          }
        },
        {
          "client_id": "922874618583-44go4fh4gv40dsir199ht9iqipgjsejh.apps.googleusercontent.com",
          "client_type": 3
        }
      ],
      "api_key": [
        {
          "current_key": "AIzaSyBFzhlGUc_v3hL53BqIeSBA67ex8CLLxB8"
        }
      ],
      "services": {
        "appinvite_service": {
          "other_platform_oauth_client": [
            {
              "client_id": "922874618583-44go4fh4gv40dsir199ht9iqipgjsejh.apps.googleusercontent.com",
              "client_type": 3
            }
          ]
        }
      }
    }
  ],
  "configuration_version": "1"
}